{
	"diagnostic.virtualText": true,
	"diagnostic.virtualTextCurrentLineOnly": true,
	"diagnostic.enable": false,
	"phpls.path": "/home/hali/Documents/Playground/Php/Intelephense",
	"phpls.enable": true,
	"intelephense.files.exclude": [
		"**/.git/**",
		"**/.svn/**",
		"**/.hg/**",
		"**/CVS/**",
		"**/.DS_Store/**",
		"**/node_modules/**"
	],
	"snippets.userSnippetsDirectory": "/home/hali/.vim/snippets-used",
	"snippets.loadFromExtensions": false,
	"snippets.extends": {
		"blade": ["html"],
		"liquid": ["markdown"],
		"vimwiki": ["markdown"]
	},
	"languageserver": {},
	"npm.binPath": "yarn",
	"tsserver.watchOptions": {
		"excludeDirectories": ["node_modules", "vendor"]
	}
}
